<?xml version="1.0" standalone="no"?>
<!DOCTYPE svg PUBLIC "-//W3C//DTD SVG 20010904//EN"
 "http://www.w3.org/TR/2001/REC-SVG-20010904/DTD/svg10.dtd">
<svg version="1.0" xmlns="http://www.w3.org/2000/svg"
 width="700.000000pt" height="700.000000pt" viewBox="0 0 700.000000 700.000000"
 preserveAspectRatio="xMidYMid meet">
<metadata>
Created by potrace 1.14, written by Peter Selinger 2001-2017
</metadata>
<g transform="translate(0.000000,700.000000) scale(0.100000,-0.100000)"
fill="#000000" stroke="none">
<path d="M1998 5245 c-2 -2 -19 -6 -40 -9 -52 -8 -125 -34 -187 -67 -67 -35
-190 -130 -191 -146 0 -7 -4 -13 -8 -13 -8 0 -82 -95 -82 -106 0 -3 -8 -18
-19 -32 -10 -15 -32 -65 -47 -112 l-29 -85 0 -665 c0 -366 4 -690 8 -720 14
-99 29 -170 47 -230 5 -19 10 -39 10 -43 0 -13 -182 86 -290 158 -270 179
-430 381 -477 599 -61 289 87 571 428 815 54 39 101 71 105 71 3 0 22 12 41
28 20 15 39 26 42 24 3 -2 7 1 9 7 4 12 -175 -48 -333 -112 -650 -262 -1004
-615 -981 -975 8 -126 9 -128 60 -237 97 -203 324 -402 657 -573 173 -89 457
-202 649 -258 69 -20 453 -116 480 -120 19 -3 64 -12 100 -19 36 -8 79 -16 95
-19 17 -2 71 -11 120 -19 101 -18 138 -23 210 -32 28 -3 61 -8 75 -10 14 -2
57 -7 95 -10 39 -4 81 -8 94 -10 13 -2 65 -7 115 -10 50 -4 107 -8 126 -11
247 -28 1131 -22 1386 11 23 3 68 8 100 10 33 3 75 8 94 10 19 3 76 9 125 15
110 13 137 17 245 35 47 8 102 17 124 21 21 3 48 8 60 10 11 3 32 7 46 10 144
29 191 39 295 65 489 122 852 268 1160 466 39 25 72 48 75 52 3 3 31 26 62 49
166 126 301 319 334 476 15 72 12 203 -5 265 -15 54 -71 175 -83 179 -4 2 -8
8 -8 14 0 29 -142 182 -240 259 -95 75 -86 69 -145 106 -27 18 -55 36 -61 40
-38 28 -278 148 -394 196 -106 45 -368 137 -385 137 -6 -1 4 -8 20 -16 113
-59 284 -185 376 -276 186 -186 270 -376 256 -581 -16 -231 -156 -438 -432
-645 -44 -33 -105 -72 -113 -72 -6 0 -12 -4 -14 -8 -3 -8 -67 -46 -160 -95
-53 -28 -55 -26 -33 47 8 26 18 69 21 95 3 25 8 49 10 52 14 24 19 225 19 784
0 593 -1 645 -19 705 -22 79 -71 179 -122 249 -41 59 -154 158 -211 187 -21
10 -40 22 -43 25 -7 7 -94 38 -150 52 -25 6 -101 11 -170 11 -105 1 -136 -3
-195 -22 -75 -25 -175 -75 -215 -107 -48 -38 -159 -150 -164 -165 -6 -16 -27
-52 -36 -60 -11 -10 -60 -132 -65 -162 -3 -17 -8 -35 -10 -39 -13 -20 -17
-148 -19 -514 -2 -348 -5 -408 -20 -465 -10 -36 -21 -69 -24 -75 -4 -5 -7 -12
-8 -15 -7 -37 -89 -162 -140 -215 -55 -57 -193 -151 -234 -160 -3 0 -25 -8
-50 -18 -65 -24 -103 -29 -215 -29 -117 0 -159 6 -240 37 -202 76 -354 234
-422 440 -25 75 -27 93 -30 305 -11 757 -7 686 -38 780 -16 47 -32 87 -37 88
-4 2 -8 8 -8 13 0 13 -60 106 -90 139 -12 14 -25 30 -28 35 -18 29 -129 106
-204 143 -100 49 -212 74 -325 71 -45 -1 -84 -3 -85 -4z"/>
<path d="M5155 2359 c-39 -13 -370 -98 -401 -103 -13 -3 -32 -7 -42 -10 -18
-5 -62 -15 -97 -21 -11 -2 -54 -10 -95 -19 -64 -13 -126 -25 -215 -41 -11 -2
-40 -6 -65 -9 -25 -3 -54 -8 -65 -10 -33 -6 -104 -18 -128 -21 -12 -1 -49 -6
-82 -10 -33 -4 -72 -9 -86 -11 -14 -2 -52 -6 -85 -9 -32 -3 -73 -8 -91 -10
-56 -8 -180 -18 -368 -29 -378 -23 -754 -20 -1130 9 -49 4 -49 3 -27 -14 13
-9 45 -28 70 -42 26 -13 49 -26 52 -29 26 -28 282 -127 410 -158 183 -45 209
-47 790 -47 532 0 645 5 732 31 10 3 30 7 45 10 16 3 42 9 59 15 17 5 40 11
50 13 38 8 202 75 280 114 153 77 316 196 439 319 55 55 90 93 84 92 -2 0 -17
-5 -34 -10z"/>
</g>
</svg>
