<svg width="2560" height="211" viewBox="0 0 2560 211" fill="none" xmlns="http://www.w3.org/2000/svg">
<g filter="url(#filter0_f_84_161)">
<path d="M0 14C0 14 95.3829 14 156.5 14C215.164 14 306.719 4 306.719 4C306.719 4 398.273 14 456.938 14C515.602 14 607.156 4 607.156 4L757.375 14L907.594 4L1057.81 14L1208.03 4L1358.25 14L1508.47 4L1658.69 14L1808.91 4L1959.12 14C1959.12 14 2050.68 4 2109.34 4C2168.01 4 2259.56 14 2259.56 14L2409.78 4L2560 14V214H0V14Z" fill="#171717"/>
</g>
<defs>
<filter id="filter0_f_84_161" x="-4" y="0" width="2568" height="218" filterUnits="userSpaceOnUse" color-interpolation-filters="sRGB">
<feFlood flood-opacity="0" result="BackgroundImageFix"/>
<feBlend mode="normal" in="SourceGraphic" in2="BackgroundImageFix" result="shape"/>
<feGaussianBlur stdDeviation="2" result="effect1_foregroundBlur_84_161"/>
</filter>
</defs>
</svg>
